{
  "useCustomJsCallback": {
    "id": "useCustomJsCallback",
    "value": "false"
  },
  "instanceReference": {
    "id": "instanceReference",
    "value": "996485944643034"
  },
  "defaultAutoExpandHeight": {
    "id": "defaultAutoExpandHeight",
    "value": "true"
  },
  "visibility": {
    "id": "visibility",
    "value": "visible",
    "dataType": "OBJECT"
  },
  "$pxblockFutureDates": {
    "id": "$pxblockFutureDates",
    "value": false,
    "dataType": "BOOLEAN"
  },
  "defaultMaxHeight": {
    "id": "defaultMaxHeight",
    "value": "600",
    "dataType": "STRING"
  },
  "defaultReferenceName": {
    "id": "defaultReferenceName",
    "value": "pxDatetimeRangePanel",
    "dataType": "STRING"
  },
  "useDataConnector": {
    "id": "useDataConnector",
    "value": "false"
  },
  "exportParameters": {
    "id": "exportParameters",
    "value": [
      {
        "CustomField_399484300961082": [
          {
            "fieldName": "{baseName}_StartDate"
          },
          {
            "requiredField": "0"
          }
        ]
      },
      {
        "CustomField_469484300967343": [
          {
            "fieldName": "{baseName}_StartDateEpoch"
          },
          {
            "requiredField": "0"
          }
        ]
      },
      {
        "CustomField_543484300974876": [
          {
            "fieldName": "{baseName}_EndDate"
          },
          {
            "requiredField": "0"
          }
        ]
      },
      {
        "CustomField_618484300982101": [
          {
            "fieldName": "{baseName}_EndDateEpoch"
          },
          {
            "requiredField": "0"
          }
        ]
      }
    ],
    "dataType": "OBJECT"
  },
  "importParameters": {
    "id": "importParameters",
    "value": [
      {
        "CustomField_187485008103636": [
          {
            "fieldName": "{baseName}_StartDate"
          },
          {
            "requiredField": "0"
          }
        ]
      },
      {
        "CustomField_311485008115912": [
          {
            "fieldName": "{baseName}_StartDateEpoch"
          },
          {
            "requiredField": "0"
          }
        ]
      },
      {
        "CustomField_398485008124488": [
          {
            "fieldName": "{baseName}_EndDate"
          },
          {
            "requiredField": "0"
          }
        ]
      },
      {
        "CustomField_508485008153044": [
          {
            "fieldName": "{baseName}_EndDateEpoch"
          },
          {
            "requiredField": "0"
          }
        ]
      }
    ],
    "dataType": "OBJECT"
  },
  "refObjId": {
    "id": "refObjId",
    "value": "0"
  },
  "contrUID": {
    "id": "contrUID",
    "value": "dshEmbedObject"
  },
  "$pxhidePresets": {
    "id": "$pxhidePresets",
    "value": false,
    "dataType": "BOOLEAN"
  },
  "mshPageId": {
    "id": "mshPageId",
    "value": "-1"
  },
  "defaultMinHeight": {
    "id": "defaultMinHeight",
    "value": "50",
    "dataType": "STRING"
  },
  "refObjType": {
    "id": "refObjType",
    "value": "264"
  },
  "defaultMaxWidth": {
    "id": "defaultMaxWidth",
    "value": "800",
    "dataType": "STRING"
  },
  "defaultAutoExpandWidth": {
    "id": "defaultAutoExpandWidth",
    "value": "true"
  },
  "$pxblockPastDates": {
    "id": "$pxblockPastDates",
    "value": false,
    "dataType": "BOOLEAN"
  },
  "min-height": {
    "id": "min-height",
    "value": "50",
    "dataType": "STRING"
  },
  "$pxhideTime": {
    "id": "$pxhideTime",
    "value": false,
    "dataType": "BOOLEAN"
  },
  "$pxtimeZone": {
    "id": "$pxtimeZone",
    "value": {
      "desc": "AUTO",
      "longDesc": "It will predict based on system tume",
      "value": "AUTO"
    },
    "dataType": "OBJECT"
  },
  "$pxtimeFormat": {
    "id": "$pxtimeFormat",
    "value": "HH:mm:ss A",
    "dataType": "STRING"
  },
  "min-width": {
    "id": "min-width",
    "value": "100",
    "dataType": "STRING"
  },
  "owner": {
    "id": "owner",
    "value": ""
  },
  "baseName": {
    "id": "baseName",
    "value": "",
    "dataType": "STRING"
  },
  "defaultMinWidth": {
    "id": "defaultMinWidth",
    "value": "98%",
    "dataType": "STRING"
  },
  "sharedLibDeps": {
    "id": "sharedLibDeps",
    "values": []
  }
}